0 0 0 1000 1000
1000 1000 10 10
0 0 100 100 -1
100 0 100 100 -1
200 0 100 100 -1
300 0 100 100 -1
400 0 100 100 -1
500 0 100 100 -1
600 0 100 100 -1
700 0 100 100 -1
800 0 100 100 -1
900 0 100 100 5
0 100 100 100 -1
100 100 100 100 3
200 100 100 100 -1
300 100 100 100 -1
400 100 100 100 -1
500 100 100 100 -1
600 100 100 100 -1
700 100 100 100 -1
800 100 100 100 -1
900 100 100 100 -1
0 200 100 100 -1
100 200 100 100 -1
200 200 100 100 -1
300 200 100 100 -1
400 200 100 100 -1
500 200 100 100 -1
600 200 100 100 -1
700 200 100 100 -1
800 200 100 100 -1
900 200 100 100 -1
0 300 100 100 -1
100 300 100 100 -1
200 300 100 100 -1
300 300 100 100 -1
400 300 100 100 7
500 300 100 100 -1
600 300 100 100 3
700 300 100 100 -1
800 300 100 100 -1
900 300 100 100 -1
0 400 100 100 -1
100 400 100 100 -1
200 400 100 100 -1
300 400 100 100 -1
400 400 100 100 7
500 400 100 100 -1
600 400 100 100 -1
700 400 100 100 7
800 400 100 100 -1
900 400 100 100 -1
0 500 100 100 -1
100 500 100 100 -1
200 500 100 100 3
300 500 100 100 -1
400 500 100 100 -1
500 500 100 100 -1
600 500 100 100 -1
700 500 100 100 -1
800 500 100 100 -1
900 500 100 100 -1
0 600 100 100 -1
100 600 100 100 -1
200 600 100 100 -1
300 600 100 100 -1
400 600 100 100 -1
500 600 100 100 -1
600 600 100 100 -1
700 600 100 100 -1
800 600 100 100 -1
900 600 100 100 8
0 700 100 100 -1
100 700 100 100 -1
200 700 100 100 -1
300 700 100 100 -1
400 700 100 100 -1
500 700 100 100 3
600 700 100 100 3
700 700 100 100 -1
800 700 100 100 -1
900 700 100 100 -1
0 800 100 100 -1
100 800 100 100 -1
200 800 100 100 3
300 800 100 100 -1
400 800 100 100 -1
500 800 100 100 -1
600 800 100 100 -1
700 800 100 100 -1
800 800 100 100 3
900 800 100 100 -1
0 900 100 100 4
100 900 100 100 -1
200 900 100 100 -1
300 900 100 100 -1
400 900 100 100 -1
500 900 100 100 -1
600 900 100 100 -1
700 900 100 100 8
800 900 100 100 -1
900 900 100 100 5
